{
    "KPackageStructure": "KWin/Effect",
    "KPlugin": {
        "Authors": [
            {
                "Email": "lmurray@undefinedfire.com, mgraesslin@kde.org",
                "Name": "Lucas Murray, Martin Gräßlin",
                "Name[ar]": "لوكاس موراي، مارتن جراجلين",
                "Name[be]": "Lucas Murray, Martin Gräßlin",
                "Name[bg]": "Lucas Murray, Martin Gräßlin",
                "Name[ca@valencia]": "Lucas Murray, Martin Gräßlin",
                "Name[ca]": "Lucas Murray, Martin Gräßlin",
                "Name[en_GB]": "Lucas Murray, Martin Gräßlin",
                "Name[es]": "Lucas Murray, Martin Gräßlin",
                "Name[et]": "Lucas Murray, Martin Gräßlin",
                "Name[eu]": "Lucas Murray, Martin Gräßlin",
                "Name[fr]": "Lucas Murray, Martin Gräßlin",
                "Name[ia]": "Lucas Murray, Martin Gräßlin",
                "Name[it]": "Lucas Murray, Martin Gräßlin",
                "Name[ka]": "Lucas Murray, Martin Gräßlin",
                "Name[nl]": "Lucas Murray, Martin Gräßlin",
                "Name[pl]": "Lucas Murray, Martin Gräßlin",
                "Name[pt]": "Lucas Murray, Martin Gräßlin",
                "Name[ru]": "Lucas Murray, Martin Gräßlin",
                "Name[sl]": "Lucas Murray, Martin Gräßlin",
                "Name[ta]": "லூக்கஸ் முரே, மார்ட்டின் கிராஸ்லின்",
                "Name[tr]": "Lucas Murray, Martin Gräßlin",
                "Name[uk]": "Lucas Murray, Martin Gräßlin",
                "Name[vi]": "Lucas Murray, Martin Gräßlin",
                "Name[x-test]": "xxLucas Murray, Martin Gräßlinxx",
                "Name[zh_CN]": "Lucas Murray, Martin Gräßlin",
                "Name[zh_TW]": "Lucas Murray, Martin Gräßlin"
            }
        ],
        "Category": "Virtual Desktop Switching Animation",
        "Description": "Fade between virtual desktops when switching between them",
        "Description[ar]": "يجعل أسطح المكتب تتلاشى عند التبيديل بينها",
        "Description[be]": "Пераход паміж віртуальнымі працоўнымі сталамі пры пераключэнні паміж імі",
        "Description[bg]": "Избледняване при превключване между работните плотове",
        "Description[ca@valencia]": "Esvaïx entre els escriptoris virtuals quan es canvia entre ells",
        "Description[ca]": "Esvaeix entre els escriptoris virtuals quan es commuta entre ells",
        "Description[en_GB]": "Fade between virtual desktops when switching between them",
        "Description[es]": "Desvanecer entre escritorios virtuales al cambiar entre ellos",
        "Description[et]": "Hääbumisefekt ühelt virtuaalselt töölaualt teisele lülitudes",
        "Description[eu]": "Koloregabetu alegiazko mahaigainen artean haien artean trukatzean",
        "Description[fr]": "Effectuer un fondu entre les bureaux virtuels lors d'un basculement entre eux",
        "Description[ia]": "Pallidi inter scriptorio virtuales quando il commuta inter los",
        "Description[it]": "Passa da desktop virtuale all'altro con una dissolvenza",
        "Description[nl]": "Laat virtuele bureaubladen vervagen en opkomen bij het wisselen",
        "Description[pl]": "Przenika pulpity wirtualne przy ich przełączaniu",
        "Description[pt]": "Desvanecer os ecrãs virtuais ao mudar entre eles",
        "Description[ru]": "Постепенная смена изображения при переключении на другой рабочий стол",
        "Description[sl]": "Prelijte med navideznimi namizji, ko preklopite med njimi",
        "Description[ta]": "பணிமேடைகளுக்கிடைய தாவும்போது அவற்றை மங்கசெய்து மாற்றும்",
        "Description[tr]": "Sanal masaüstleri arasında pürüzsüzce geçiş yap",
        "Description[uk]": "Затемнення перед час перемикання між віртуальними стільницями",
        "Description[vi]": "Làm mờ dần giữa các bàn làm việc ảo khi chuyển đổi giữa chúng",
        "Description[x-test]": "xxFade between virtual desktops when switching between themxx",
        "Description[zh_CN]": "在虚拟桌面间切换时呈现渐入渐出动效",
        "Description[zh_TW]": "切換虛擬桌面時在它們之間進行淡化",
        "EnabledByDefault": false,
        "Icon": "preferences-system-windows-effect-fadedesktop",
        "Id": "kwin4_effect_fadedesktop",
        "License": "GPL",
        "Name": "Fade Desktop",
        "Name[ar]": "تلاشِ سطح المكتب",
        "Name[be]": "Згасанне працоўнага стала",
        "Name[bg]": "Избледняване на работния плот",
        "Name[ca@valencia]": "Esvaïment de l'escriptori",
        "Name[ca]": "Esvaïment de l'escriptori",
        "Name[cs]": "Zeslabit plochu",
        "Name[en_GB]": "Fade Desktop",
        "Name[es]": "Desvanecer el escritorio",
        "Name[et]": "Töölaua hääbumine",
        "Name[eu]": "Koloregabetu mahaigaina",
        "Name[fr]": "Effectuer un fondu du bureau",
        "Name[ia]": "Pallidi scriptorio",
        "Name[it]": "Dissolvenza dei desktop",
        "Name[ka]": "ვირტუალური სამუშაო მაგიდები",
        "Name[nl]": "Bureaublad op laten komen",
        "Name[pl]": "Przenikanie pulpitów",
        "Name[pt]": "Desvanecer o Ecrã",
        "Name[ru]": "Плавная смена рабочих столов",
        "Name[sl]": "Prelij v namizje",
        "Name[ta]": "பணிமேடையை மங்க செய்",
        "Name[tr]": "Masaüstünü Soldur",
        "Name[uk]": "Затемнення стільниці",
        "Name[vi]": "Làm mờ dần bàn làm việc",
        "Name[x-test]": "xxFade Desktopxx",
        "Name[zh_CN]": "淡出桌面",
        "Name[zh_TW]": "淡出淡入桌面",
        "Version": "0.2.0"
    },
    "X-KDE-Ordering": "50",
    "X-KWin-Exclusive-Category": "desktop-animations",
    "X-KWin-Video-Url": "https://files.kde.org/plasma/kwin/effect-videos/fade_desktop.ogv",
    "X-Plasma-API": "javascript",
    "X-Plasma-MainScript": "code/main.js"
}
